…
Preparing the data:

    W <- read.csv("Approach_I/GWLevels_stationary.csv", sep=",")[-1]
    S <- read.csv("Approach_I/SW_stationary.csv", sep=",")[-1]
    P <- read.csv("Approach_I/Precipitation_stationary.csv", sep=",")[-1]
    Pu <- -read.csv("Data_Processing/Pumping.csv", sep=",")[-1]

    #Combining all variables together
    All <- data.frame(W,S,P)
    All$Pu <- c(unlist(Pu),rep(NA, nrow(All)-nrow(Pu)))
    tbl_df(All)

    ## # A tibble: 227 x 29
    ##         W60      W63     W67      W70     W73     W74     W78    W80    W81
    ##       <dbl>    <dbl>   <dbl>    <dbl>   <dbl>   <dbl>   <dbl>  <dbl>  <dbl>
    ##  1 -0.0749   0.0100   0.0724  0.00836 -0.208  -0.149  -0.0568  0      0    
    ##  2 -0.139   -0.00628  0.0848  0.0985  -0.175  -0.419  -0.0307  0      0    
    ##  3 -0.128    0.00691  0.123  -0.318   -0.184  -0.222  -0.0485 -0.226  0    
    ##  4 -0.348   -0.218    0.116  -0.191    0.0368 -0.688  -0.0387 -0.226  0    
    ##  5 -0.211   -0.528   -0.469   0.101    0.393  -0.559  -0.316  -0.710 -1.5  
    ##  6 -0.0985  -0.884   -2.69    1.17    -0.283   0.236  -1.10    1.29  -6.17 
    ##  7 -0.244   -1.62    -1.47    0.756    0.901  -0.302  -0.607  -0.673 -2.33 
    ##  8  0.00396  0.00615 -0.652  -1.17     0.603   0.0795 -0.630  -1.28   0.967
    ##  9 -0.00708  0.124    0.261  -0.824   -0.809   0.116  -0.129   0.177  0.315
    ## 10  0.449    0.162    0.0490  0.00219 -0.294   0.367  -0.141   1.69   0.519
    ## # ... with 217 more rows, and 20 more variables: W115 <dbl>, W116 <dbl>,
    ## #   W118 <dbl>, G40 <dbl>, G42 <dbl>, G45 <dbl>, G49 <dbl>, G51 <dbl>,
    ## #   G53 <dbl>, G65 <dbl>, RV <dbl>, CDY <dbl>, KY <dbl>, HY <dbl>, GI <dbl>,
    ## #   GS <dbl>, GO <dbl>, NP <dbl>, DC <dbl>, Pu <dbl>
…
Now, using the above function in our data.

    new_df <- Create_crosscorrelation_table(All)

Now, we need to arrange this table in a presentable form.

    ## Arrange table in a horizontal form
    tbl_df(new_df)

    ## # A tibble: 812 x 5
    ##    Var1  Var2    Cor     Lag Months
    ##    <chr> <chr> <dbl>   <dbl>  <dbl>
    ##  1 W60   W63   0.327 -0.0833     -1
    ##  2 W60   W67   0.241 -0.0833     -1
    ##  3 W60   W70   0.175  1.58       19
    ##  4 W60   W73   0.146  1.42       17
    ##  5 W60   W74   0.761  0           0
    ##  6 W60   W78   0.236 -0.0833     -1
    ##  7 W60   W80   0.480  0           0
    ##  8 W60   W81   0.251 -0.0833     -1
    ##  9 W60   W115  0.225  1.58       19
    ## 10 W60   W116  0.222 -0.0833     -1
    ## # ... with 802 more rows
…
