…
Here are plots of stream gauge heights after imputations.

    ## # A tibble: 1,596 x 3
    ## # Groups:   Date, GaugeSt [1,596]
    ##    Date       GaugeSt  GgHt
    ##    <date>     <fct>   <dbl>
    ##  1 2000-01-01 G40      1.20
    ##  2 2000-02-01 G40      1.20
    ##  3 2000-03-01 G40      1.18
    ##  4 2000-04-01 G40      1.19
    ##  5 2000-05-01 G40      1.32
    ##  6 2000-06-01 G40      1.38
    ##  7 2000-07-01 G40      1.44
    ##  8 2000-08-01 G40      1.29
    ##  9 2000-09-01 G40      1.07
    ## 10 2000-10-01 G40      1.07
    ## # ... with 1,586 more rows
…
